module gitlab.com/rteja-library3/rresponser

go 1.17

require (
	github.com/stretchr/testify v1.7.0
	gitlab.com/rteja-library3/rapperror v0.0.0-20220214163128-c412f6a9676f
	gitlab.com/rteja-library3/rhelper v0.0.0-20220216064332-0dfcfb216ad0
)

require (
	github.com/VividCortex/mysqlerr v1.0.0 // indirect
	github.com/davecgh/go-spew v1.1.1 // indirect
	github.com/go-chi/chi v1.5.4 // indirect
	github.com/go-sql-driver/mysql v1.6.0 // indirect
	github.com/go-stack/stack v1.8.0 // indirect
	github.com/golang/snappy v0.0.1 // indirect
	github.com/google/uuid v1.3.0 // indirect
	github.com/klauspost/compress v1.13.6 // indirect
	github.com/lib/pq v1.10.4 // indirect
	github.com/oklog/ulid/v2 v2.0.2 // indirect
	github.com/pkg/errors v0.9.1 // indirect
	github.com/pmezard/go-difflib v1.0.0 // indirect
	github.com/sirupsen/logrus v1.8.1 // indirect
	github.com/xdg-go/pbkdf2 v1.0.0 // indirect
	github.com/xdg-go/scram v1.0.2 // indirect
	github.com/xdg-go/stringprep v1.0.2 // indirect
	github.com/youmark/pkcs8 v0.0.0-20181117223130-1be2e3e5546d // indirect
	gitlab.com/rteja-library3/rencryption v0.0.0-20220215103608-74b4d02b0678 // indirect
	go.mongodb.org/mongo-driver v1.8.3 // indirect
	golang.org/x/crypto v0.0.0-20201216223049-8b5274cf687f // indirect
	golang.org/x/sync v0.0.0-20210220032951-036812b2e83c // indirect
	golang.org/x/sys v0.0.0-20210510120138-977fb7262007 // indirect
	golang.org/x/text v0.3.5 // indirect
	gopkg.in/yaml.v3 v3.0.0-20210107192922-496545a6307b // indirect
)
